2
kwadrat 0 20 50 	255 255 155 100	30
kwadrat 50 20 50 	255 255 255 100	30
kwadrat 100 20 50 	155 205 255 100	30	
kwadrat 150 20 50 	255 255 255 100	30
kwadrat 200 20 50 	255 255 255 100	30	
kwadrat 250 20 50 	255 255 215 100	30
kwadrat 300 20 50 	255 255 255 100	30
kwadrat 350 20 50 	255 255 255 100	30
kwadrat 400 20 50 	255 255 255 100	30
kwadrat 450 20 50 	155 255 255 100	30
kwadrat 500 20 50 	255 255 255 100	30
kwadrat 550 20 50 	255 255 255 100	30
kwadrat 600 20 50 	255 255 255 100	30
kwadrat 650 20 50 	255 255 255 100	30
kwadrat 700 20 50 	255 45 255 100	30
kwadrat 750 20 50 	255 255 155 100	30